dateEffectiveFrom,dateEffectiveTo,rateType,compensationRangeFrom,compensationRangeTo,withholdingTaxValue,withholdingTaxPercent
2018-01-01,2022-12-31,DAILY,0,685,0,0
2018-01-01,2022-12-31,DAILY,685,1095,0,0.2
2018-01-01,2022-12-31,DAILY,1096,2191,82.19,0.25
2018-01-01,2022-12-31,DAILY,2192,5478,356.16,0.3
2018-01-01,2022-12-31,DAILY,5479,21917,1342.47,0.32
2018-01-01,2022-12-31,DAILY,21918,0,6602.74,0.35
2018-01-01,2022-12-31,WEEKLY,0,4808,0,0
2018-01-01,2022-12-31,WEEKLY,4808,7691,0,0.2
2018-01-01,2022-12-31,WEEKLY,7692,15384,576.92,0.25
2018-01-01,2022-12-31,WEEKLY,15385,38461,2500,0.3
2018-01-01,2022-12-31,WEEKLY,38462,153845,9423.08,0.32
2018-01-01,2022-12-31,WEEKLY,153846,0,46346.15,0.35
2018-01-01,2022-12-31,SEMI-MONTHLY,0,10417,0,0
2018-01-01,2022-12-31,SEMI-MONTHLY,10417,16666,0,0.2
2018-01-01,2022-12-31,SEMI-MONTHLY,16667,33332,1250,0.25
2018-01-01,2022-12-31,SEMI-MONTHLY,33333,83332,5416.67,0.3
2018-01-01,2022-12-31,SEMI-MONTHLY,83333,333332,20416.67,0.32
2018-01-01,2022-12-31,SEMI-MONTHLY,333333,0,100416.67,0.35
2018-01-01,2022-12-31,MONTHLY,0,20883,0,0
2018-01-01,2022-12-31,MONTHLY,20833,33332,0,0.2
2018-01-01,2022-12-31,MONTHLY,33333,66666,2500,0.25
2018-01-01,2022-12-31,MONTHLY,66667,166666,10833.33,0.3
2018-01-01,2022-12-31,MONTHLY,166667,666666,40833.33,0.32
2018-01-01,2022-12-31,MONTHLY,666667,0,200833.33,0.35
